{
	"lines":[
	"Forge Energy Use"
	,""
	," Timeships also allow for the use of Forge Energy (FE)"
	,"Each timeship contains an internal FE buffer that can be used anywhere in the interior."
	,"This is seperate to the Artron Buffer."
	]
}