{
	"credit": "Made with Blockbench",
	"texture_size": [64, 64],
	"textures": {
		"0": "tardis:blocks/alembic/alembic_mk3_off_texture",
		"particle": "tardis:blocks/alembic/alembic_mk3_off_texture"
	},
	"elements": [
		{
			"from": [9.25, 8.25, 5.4],
			"to": [14.25, 9.25, 10.4],
			"faces": {
				"north": {"uv": [10.25, 4.25, 11.5, 4.5], "texture": "#0"},
				"east": {"uv": [14, 4.25, 15.25, 4.5], "texture": "#0"},
				"south": {"uv": [12.75, 4.25, 14, 4.5], "texture": "#0"},
				"west": {"uv": [11.5, 4.25, 12.75, 4.5], "texture": "#0"},
				"up": {"uv": [11.5, 3, 12.75, 4.25], "texture": "#0"},
				"down": {"uv": [12.75, 3, 14, 4.25], "texture": "#0"}
			}
		},
		{
			"from": [14.5, 0, 4.5],
			"to": [15.5, 4, 5.5],
			"faces": {
				"north": {"uv": [0, 2.5, 0.25, 3.5], "texture": "#0"},
				"east": {"uv": [0.75, 2.5, 1, 3.5], "texture": "#0"},
				"south": {"uv": [0.5, 2.5, 0.75, 3.5], "texture": "#0"},
				"west": {"uv": [0.25, 2.5, 0.5, 3.5], "texture": "#0"},
				"up": {"uv": [0.25, 2.25, 0.5, 2.5], "texture": "#0"},
				"down": {"uv": [0.5, 2.25, 0.75, 2.5], "texture": "#0"}
			}
		},
		{
			"from": [14.5, 0, 10.5],
			"to": [15.5, 4, 11.5],
			"faces": {
				"north": {"uv": [0, 2.5, 0.25, 3.5], "texture": "#0"},
				"east": {"uv": [0.75, 2.5, 1, 3.5], "texture": "#0"},
				"south": {"uv": [0.5, 2.5, 0.75, 3.5], "texture": "#0"},
				"west": {"uv": [0.25, 2.5, 0.5, 3.5], "texture": "#0"},
				"up": {"uv": [0.25, 2.25, 0.5, 2.5], "texture": "#0"},
				"down": {"uv": [0.5, 2.25, 0.75, 2.5], "texture": "#0"}
			}
		},
		{
			"from": [0.5, 0, 10.5],
			"to": [1.5, 4, 11.5],
			"faces": {
				"north": {"uv": [0, 2.5, 0.25, 3.5], "texture": "#0"},
				"east": {"uv": [0.75, 2.5, 1, 3.5], "texture": "#0"},
				"south": {"uv": [0.5, 2.5, 0.75, 3.5], "texture": "#0"},
				"west": {"uv": [0.25, 2.5, 0.5, 3.5], "texture": "#0"},
				"up": {"uv": [0.25, 2.25, 0.5, 2.5], "texture": "#0"},
				"down": {"uv": [0.5, 2.25, 0.75, 2.5], "texture": "#0"}
			}
		},
		{
			"from": [0.5, 0, 4.5],
			"to": [1.5, 4, 5.5],
			"faces": {
				"north": {"uv": [0, 2.5, 0.25, 3.5], "texture": "#0"},
				"east": {"uv": [0.75, 2.5, 1, 3.5], "texture": "#0"},
				"south": {"uv": [0.5, 2.5, 0.75, 3.5], "texture": "#0"},
				"west": {"uv": [0.25, 2.5, 0.5, 3.5], "texture": "#0"},
				"up": {"uv": [0.25, 2.25, 0.5, 2.5], "texture": "#0"},
				"down": {"uv": [0.5, 2.25, 0.75, 2.5], "texture": "#0"}
			}
		},
		{
			"from": [0, 3.25, 4],
			"to": [16, 4.25, 12],
			"faces": {
				"north": {"uv": [6.75, 2, 10.75, 2.25], "texture": "#0"},
				"east": {"uv": [0, 2, 2, 2.25], "texture": "#0"},
				"south": {"uv": [2, 2, 6, 2.25], "texture": "#0"},
				"west": {"uv": [5.5, 2.25, 7.5, 2.5], "texture": "#0"},
				"up": {"uv": [2, 0, 6, 2], "rotation": 180, "texture": "#0"},
				"down": {"uv": [6, 0, 10, 2], "texture": "#0"}
			}
		},
		{
			"from": [7.5, 1.6, 4.5],
			"to": [8.5, 2.6, 5.5],
			"faces": {
				"north": {"uv": [9.25, 5.75, 9.5, 6], "texture": "#0"},
				"east": {"uv": [9.25, 6, 9.5, 6.25], "texture": "#0"},
				"south": {"uv": [9.25, 6.25, 9.5, 6.5], "texture": "#0"},
				"west": {"uv": [9.25, 7, 9.5, 7.25], "texture": "#0"},
				"up": {"uv": [9.25, 7.5, 9.5, 7.75], "texture": "#0"},
				"down": {"uv": [9.25, 7.75, 9.5, 8], "texture": "#0"}
			}
		},
		{
			"from": [1, 1, 5],
			"to": [15, 4, 11],
			"faces": {
				"north": {"uv": [1.5, 3.75, 5, 4.5], "texture": "#0"},
				"east": {"uv": [8.5, 3.75, 10, 4.5], "texture": "#0"},
				"south": {"uv": [5, 3.75, 8.5, 4.5], "rotation": 180, "texture": "#0"},
				"west": {"uv": [5, 3.75, 6.5, 4.5], "texture": "#0"},
				"up": {"uv": [0, 4, 3.5, 5.5], "texture": "#0"},
				"down": {"uv": [5, 2.25, 8.5, 3.75], "texture": "#0"}
			}
		},
		{
			"from": [10.75, 12, 6.9],
			"to": [12.75, 13, 8.9],
			"faces": {
				"north": {"uv": [0.25, 11, 0.75, 11.25], "texture": "#0"},
				"east": {"uv": [1.75, 11, 2.25, 11.25], "texture": "#0"},
				"south": {"uv": [1.25, 11, 1.75, 11.25], "texture": "#0"},
				"west": {"uv": [0.75, 11, 1.25, 11.25], "texture": "#0"},
				"up": {"uv": [0.75, 10.5, 1.25, 11], "texture": "#0"},
				"down": {"uv": [1.25, 10.5, 1.75, 11], "texture": "#0"}
			}
		},
		{
			"from": [8.75, 4.25, 5],
			"to": [14.75, 7.25, 11],
			"faces": {
				"north": {"uv": [1.75, 7.75, 3.25, 8.5], "texture": "#0"},
				"east": {"uv": [0.25, 7.75, 1.75, 8.5], "texture": "#0"},
				"south": {"uv": [4.75, 7.75, 6.25, 8.5], "texture": "#0"},
				"west": {"uv": [3.25, 7.75, 4.75, 8.5], "texture": "#0"},
				"up": {"uv": [1.75, 6.25, 3.25, 7.75], "texture": "#0"},
				"down": {"uv": [3.25, 6.25, 4.75, 7.75], "texture": "#0"}
			}
		},
		{
			"from": [14.75, 5.5, 7.75],
			"to": [15.25, 6, 8.25],
			"faces": {
				"north": {"uv": [0.5, 6.75, 0.75, 7], "texture": "#0"},
				"east": {"uv": [0.5, 6.75, 0.75, 7], "texture": "#0"},
				"south": {"uv": [0.5, 6.75, 0.75, 7], "texture": "#0"},
				"west": {"uv": [0.5, 6.75, 0.75, 7], "texture": "#0"},
				"up": {"uv": [0.5, 6.75, 0.75, 7], "texture": "#0"},
				"down": {"uv": [0.5, 6.75, 0.75, 7], "texture": "#0"}
			}
		},
		{
			"from": [15.25, 5.25, 7.5],
			"to": [15.75, 6.25, 8.5],
			"faces": {
				"north": {"uv": [0.5, 6.25, 0.75, 6.5], "texture": "#0"},
				"east": {"uv": [0.5, 6.25, 0.75, 6.5], "texture": "#0"},
				"south": {"uv": [0.5, 6.25, 0.75, 6.5], "texture": "#0"},
				"west": {"uv": [0.5, 6.25, 0.75, 6.5], "texture": "#0"},
				"up": {"uv": [0.5, 6.25, 0.75, 6.5], "texture": "#0"},
				"down": {"uv": [0.5, 6.25, 0.75, 6.5], "texture": "#0"}
			}
		},
		{
			"from": [9.75, 6.75, 5.9],
			"to": [13.75, 7.75, 9.9],
			"faces": {
				"north": {"uv": [3.25, 10.5, 4.25, 10.75], "texture": "#0"},
				"east": {"uv": [6.25, 10.5, 7.25, 10.75], "texture": "#0"},
				"south": {"uv": [5.25, 10.5, 6.25, 10.75], "texture": "#0"},
				"west": {"uv": [4.25, 10.5, 5.25, 10.75], "texture": "#0"},
				"up": {"uv": [4.25, 9.5, 5.25, 10.5], "texture": "#0"},
				"down": {"uv": [5.25, 9.5, 6.25, 10.5], "texture": "#0"}
			}
		},
		{
			"from": [9.25, 7.75, 5.4],
			"to": [14.25, 8.75, 10.4],
			"faces": {
				"north": {"uv": [6.5, 8.5, 7.75, 8.75], "texture": "#0"},
				"east": {"uv": [10.25, 8.5, 11.5, 8.75], "texture": "#0"},
				"south": {"uv": [9, 8.5, 10.25, 8.75], "texture": "#0"},
				"west": {"uv": [7.75, 8.5, 9, 8.75], "texture": "#0"},
				"up": {"uv": [7.75, 7.25, 9, 8.5], "texture": "#0"},
				"down": {"uv": [9, 7.25, 10.25, 8.5], "texture": "#0"}
			}
		},
		{
			"from": [9.25, 11.55, 5.4],
			"to": [14.25, 12.55, 10.4],
			"faces": {
				"north": {"uv": [6.5, 8.5, 7.75, 8.75], "texture": "#0"},
				"east": {"uv": [10.25, 8.5, 11.5, 8.75], "texture": "#0"},
				"south": {"uv": [9, 8.5, 10.25, 8.75], "texture": "#0"},
				"west": {"uv": [7.75, 8.5, 9, 8.75], "texture": "#0"},
				"up": {"uv": [7.75, 7.25, 9, 8.5], "texture": "#0"},
				"down": {"uv": [9, 7.25, 10.25, 8.5], "texture": "#0"}
			}
		},
		{
			"from": [10.25, 12.75, 6.4],
			"to": [13.25, 15.75, 9.4],
			"faces": {
				"north": {"uv": [6.5, 9.5, 7.25, 10.25], "texture": "#0"},
				"east": {"uv": [8.75, 9.5, 9.5, 10.25], "texture": "#0"},
				"south": {"uv": [8, 9.5, 8.75, 10.25], "texture": "#0"},
				"west": {"uv": [7.25, 9.5, 8, 10.25], "texture": "#0"},
				"up": {"uv": [7.25, 8.75, 8, 9.5], "texture": "#0"},
				"down": {"uv": [8, 8.75, 8.75, 9.5], "texture": "#0"}
			}
		},
		{
			"from": [8.75, 8, 4.9],
			"to": [14.75, 12, 10.9],
			"faces": {
				"north": {"uv": [6.5, 6.25, 8, 7.25], "texture": "#0"},
				"east": {"uv": [11, 6.25, 12.5, 7.25], "texture": "#0"},
				"south": {"uv": [9.5, 6.25, 11, 7.25], "texture": "#0"},
				"west": {"uv": [8, 6.25, 9.5, 7.25], "texture": "#0"},
				"up": {"uv": [8, 4.75, 9.5, 6.25], "texture": "#0"},
				"down": {"uv": [9.5, 4.75, 11, 6.25], "texture": "#0"}
			}
		},
		{
			"from": [0.5, 4.25, 7.25],
			"to": [1.5, 9.25, 8.25],
			"faces": {
				"north": {"uv": [0, 0.25, 0.25, 1.5], "texture": "#0"},
				"east": {"uv": [0.75, 0.25, 1, 1.5], "texture": "#0"},
				"south": {"uv": [0.5, 0.25, 0.75, 1.5], "texture": "#0"},
				"west": {"uv": [0.25, 0.25, 0.5, 1.5], "texture": "#0"},
				"up": {"uv": [0.25, 0, 0.5, 0.25], "texture": "#0"},
				"down": {"uv": [0.5, 0, 0.75, 0.25], "texture": "#0"}
			}
		},
		{
			"from": [5.5, 4.25, 7.25],
			"to": [6.5, 9.25, 8.25],
			"faces": {
				"north": {"uv": [0, 0.25, 0.25, 1.5], "texture": "#0"},
				"east": {"uv": [0.75, 0.25, 1, 1.5], "texture": "#0"},
				"south": {"uv": [0.5, 0.25, 0.75, 1.5], "texture": "#0"},
				"west": {"uv": [0.25, 0.25, 0.5, 1.5], "texture": "#0"},
				"up": {"uv": [0.25, 0, 0.5, 0.25], "texture": "#0"},
				"down": {"uv": [0.5, 0, 0.75, 0.25], "texture": "#0"}
			}
		},
		{
			"from": [1.5, 6, 5.75],
			"to": [5.5, 10, 9.75],
			"faces": {
				"north": {"uv": [0.25, 9.5, 1.25, 10.5], "texture": "#0"},
				"east": {"uv": [3, 9.5, 4, 10.5], "rotation": 270, "texture": "#0"},
				"south": {"uv": [2.25, 9.5, 3.25, 10.5], "texture": "#0"},
				"west": {"uv": [3, 9.5, 4, 10.5], "texture": "#0"},
				"up": {"uv": [1.25, 8.5, 2.25, 9.5], "texture": "#0"},
				"down": {"uv": [2.25, 8.5, 3.25, 9.5], "texture": "#0"}
			}
		},
		{
			"from": [2, 5.5, 6.25],
			"to": [5, 6.5, 9.25],
			"faces": {
				"north": {"uv": [3.25, 9.25, 4, 9.5], "texture": "#0"},
				"east": {"uv": [4.75, 9.25, 5.5, 9.5], "texture": "#0"},
				"south": {"uv": [4, 9.25, 4.75, 9.5], "texture": "#0"},
				"west": {"uv": [5.5, 9.25, 6.25, 9.5], "texture": "#0"},
				"up": {"uv": [4, 8.5, 4.75, 9.25], "texture": "#0"},
				"down": {"uv": [4.75, 8.5, 5.5, 9.25], "texture": "#0"}
			}
		},
		{
			"from": [7.25, 14, 7.15],
			"to": [10.75, 15.5, 8.65],
			"rotation": {"angle": 22.5, "axis": "z", "origin": [12, 14.25, 8]},
			"faces": {
				"north": {"uv": [11, 6.25, 12, 6.75], "texture": "#0"},
				"east": {"uv": [12, 7.25, 12.5, 7.75], "texture": "#0"},
				"south": {"uv": [11, 6.25, 12, 6.75], "texture": "#0"},
				"west": {"uv": [12, 7.25, 12.5, 7.75], "texture": "#0"},
				"up": {"uv": [10.5, 7.25, 11.5, 7.75], "texture": "#0"},
				"down": {"uv": [10.5, 7.25, 11.5, 7.75], "texture": "#0"}
			}
		},
		{
			"from": [3.5, 14.25, 7.4],
			"to": [7.5, 15.25, 8.4],
			"rotation": {"angle": 22.5, "axis": "z", "origin": [12, 14.25, 8]},
			"faces": {
				"north": {"uv": [10.5, 8.5, 11.5, 8.75], "texture": "#0"},
				"east": {"uv": [13.25, 9, 13.5, 9.25], "texture": "#0"},
				"south": {"uv": [10.5, 8.5, 11.5, 8.75], "texture": "#0"},
				"west": {"uv": [13.25, 9, 13.5, 9.25], "texture": "#0"},
				"up": {"uv": [10.5, 8.5, 11.5, 8.75], "texture": "#0"},
				"down": {"uv": [10.5, 8.5, 11.5, 8.75], "texture": "#0"}
			}
		}
	],
	"groups": [
		{
			"name": "glow_cinnabar",
			"origin": [8, 8, 8],
			"children": [0]
		},
		{
			"name": "legs",
			"origin": [8, 8, 8],
			"children": [1, 2, 3, 4]
		},
		{
			"name": "base",
			"origin": [8, 8, 8],
			"children": [5, 6, 7]
		},
		{
			"name": "boiler",
			"origin": [8, 8, 8],
			"children": [8, 9, 10, 11, 12]
		},
		{
			"name": "fume",
			"origin": [8, 8, 8],
			"children": [13, 14, 15, 16]
		},
		{
			"name": "collector",
			"origin": [8, 8, 8],
			"children": [17, 18, 19, 20]
		},
		{
			"name": "funnel",
			"origin": [8, 8, 8],
			"children": [21, 22]
		}
	]
}