{
	"credit": "Made with Blockbench",
	"texture_size": [64, 64],
	"textures": {
		"0": "tardis:blocks/rift_pylon",
		"particle": "tardis:blocks/rift_pylon"
	},
	"elements": [
		{
			"from": [0, 0, 0],
			"to": [16, 3, 16],
			"faces": {
				"north": {"uv": [4, 4, 8, 4.75], "texture": "#0"},
				"east": {"uv": [0, 4, 4, 4.75], "texture": "#0"},
				"south": {"uv": [12, 4, 16, 4.75], "texture": "#0"},
				"west": {"uv": [8, 4, 12, 4.75], "texture": "#0"},
				"up": {"uv": [8, 4, 4, 0], "texture": "#0"},
				"down": {"uv": [12, 0, 8, 4], "texture": "#0"}
			}
		},
		{
			"from": [2, 3, 2],
			"to": [14, 8, 14],
			"rotation": {"angle": 0, "axis": "y", "origin": [8, 11, 8]},
			"faces": {
				"north": {"uv": [3, 7.75, 6, 9], "texture": "#0"},
				"east": {"uv": [0, 7.75, 3, 9], "texture": "#0"},
				"south": {"uv": [9, 7.75, 12, 9], "texture": "#0"},
				"west": {"uv": [6, 7.75, 9, 9], "texture": "#0"},
				"up": {"uv": [6, 7.75, 3, 4.75], "texture": "#0"},
				"down": {"uv": [9, 4.75, 6, 7.75], "texture": "#0"}
			}
		},
		{
			"from": [12, 3, 1],
			"to": [15, 10, 4],
			"rotation": {"angle": 0, "axis": "y", "origin": [9, 11, 7]},
			"faces": {
				"north": {"uv": [0.75, 5.5, 1.5, 7.25], "texture": "#0"},
				"east": {"uv": [0, 5.5, 0.75, 7.25], "texture": "#0"},
				"south": {"uv": [2.25, 5.5, 3, 7.25], "texture": "#0"},
				"west": {"uv": [1.5, 5.5, 2.25, 7.25], "texture": "#0"},
				"up": {"uv": [1.5, 5.5, 0.75, 4.75], "texture": "#0"},
				"down": {"uv": [2.25, 4.75, 1.5, 5.5], "texture": "#0"}
			}
		},
		{
			"from": [1, 3, 1],
			"to": [4, 10, 4],
			"rotation": {"angle": 0, "axis": "y", "origin": [-2, 11, 7]},
			"faces": {
				"north": {"uv": [0.75, 5.5, 1.5, 7.25], "texture": "#0"},
				"east": {"uv": [0, 5.5, 0.75, 7.25], "texture": "#0"},
				"south": {"uv": [2.25, 5.5, 3, 7.25], "texture": "#0"},
				"west": {"uv": [1.5, 5.5, 2.25, 7.25], "texture": "#0"},
				"up": {"uv": [1.5, 5.5, 0.75, 4.75], "texture": "#0"},
				"down": {"uv": [2.25, 4.75, 1.5, 5.5], "texture": "#0"}
			}
		},
		{
			"from": [12, 3, 12],
			"to": [15, 10, 15],
			"rotation": {"angle": 0, "axis": "y", "origin": [9, 11, 18]},
			"faces": {
				"north": {"uv": [0.75, 5.5, 1.5, 7.25], "texture": "#0"},
				"east": {"uv": [0, 5.5, 0.75, 7.25], "texture": "#0"},
				"south": {"uv": [2.25, 5.5, 3, 7.25], "texture": "#0"},
				"west": {"uv": [1.5, 5.5, 2.25, 7.25], "texture": "#0"},
				"up": {"uv": [1.5, 5.5, 0.75, 4.75], "texture": "#0"},
				"down": {"uv": [2.25, 4.75, 1.5, 5.5], "texture": "#0"}
			}
		},
		{
			"from": [1, 3, 12],
			"to": [4, 10, 15],
			"rotation": {"angle": 0, "axis": "y", "origin": [-2, 11, 18]},
			"faces": {
				"north": {"uv": [0.75, 5.5, 1.5, 7.25], "texture": "#0"},
				"east": {"uv": [0, 5.5, 0.75, 7.25], "texture": "#0"},
				"south": {"uv": [2.25, 5.5, 3, 7.25], "texture": "#0"},
				"west": {"uv": [1.5, 5.5, 2.25, 7.25], "texture": "#0"},
				"up": {"uv": [1.5, 5.5, 0.75, 4.75], "texture": "#0"},
				"down": {"uv": [2.25, 4.75, 1.5, 5.5], "texture": "#0"}
			}
		},
		{
			"from": [5, 15, 5],
			"to": [11, 16, 11],
			"rotation": {"angle": 0, "axis": "y", "origin": [8, 16, 8]},
			"faces": {
				"north": {"uv": [10, 10.5, 11.5, 10.75], "texture": "#0"},
				"east": {"uv": [8.5, 10.5, 10, 10.75], "texture": "#0"},
				"south": {"uv": [13, 10.5, 14.5, 10.75], "texture": "#0"},
				"west": {"uv": [11.5, 10.5, 13, 10.75], "texture": "#0"},
				"up": {"uv": [11.5, 10.5, 10, 9], "texture": "#0"},
				"down": {"uv": [13, 9, 11.5, 10.5], "texture": "#0"}
			}
		},
		{
			"from": [5, 13.5, 5],
			"to": [11, 14.5, 11],
			"rotation": {"angle": 0, "axis": "y", "origin": [8, 14.5, 8]},
			"faces": {
				"north": {"uv": [10, 10.5, 11.5, 10.75], "texture": "#0"},
				"east": {"uv": [8.5, 10.5, 10, 10.75], "texture": "#0"},
				"south": {"uv": [13, 10.5, 14.5, 10.75], "texture": "#0"},
				"west": {"uv": [11.5, 10.5, 13, 10.75], "texture": "#0"},
				"up": {"uv": [11.5, 10.5, 10, 9], "texture": "#0"},
				"down": {"uv": [13, 9, 11.5, 10.5], "texture": "#0"}
			}
		},
		{
			"from": [5, 12, 5],
			"to": [11, 13, 11],
			"rotation": {"angle": 0, "axis": "y", "origin": [8, 13, 8]},
			"faces": {
				"north": {"uv": [10, 10.5, 11.5, 10.75], "texture": "#0"},
				"east": {"uv": [8.5, 10.5, 10, 10.75], "texture": "#0"},
				"south": {"uv": [13, 10.5, 14.5, 10.75], "texture": "#0"},
				"west": {"uv": [11.5, 10.5, 13, 10.75], "texture": "#0"},
				"up": {"uv": [11.5, 10.5, 10, 9], "texture": "#0"},
				"down": {"uv": [13, 9, 11.5, 10.5], "texture": "#0"}
			}
		},
		{
			"from": [5, 7.5, 5],
			"to": [11, 11.5, 11],
			"rotation": {"angle": 0, "axis": "y", "origin": [8, 11.5, 8]},
			"faces": {
				"north": {"uv": [10.5, 6.25, 12, 7.25], "texture": "#0"},
				"east": {"uv": [9, 6.25, 10.5, 7.25], "texture": "#0"},
				"south": {"uv": [13.5, 6.25, 15, 7.25], "texture": "#0"},
				"west": {"uv": [12, 6.25, 13.5, 7.25], "texture": "#0"},
				"up": {"uv": [12, 6.25, 10.5, 4.75], "texture": "#0"},
				"down": {"uv": [13.5, 4.75, 12, 6.25], "texture": "#0"}
			}
		},
		{
			"from": [6, 11, 6],
			"to": [10, 16.5, 10],
			"rotation": {"angle": 0, "axis": "y", "origin": [8, 15, 8]},
			"faces": {
				"north": {"uv": [1, 1, 2, 2.25], "texture": "#0"},
				"east": {"uv": [0, 1, 1, 2.25], "texture": "#0"},
				"south": {"uv": [3, 1, 4, 2.25], "texture": "#0"},
				"west": {"uv": [2, 1, 3, 2.25], "texture": "#0"},
				"up": {"uv": [2, 1, 1, 0], "texture": "#0"},
				"down": {"uv": [3, 0, 2, 1], "texture": "#0"}
			}
		},
		{
			"from": [6, 16.4375, 6.0625],
			"to": [10, 24.4375, 10.0625],
			"rotation": {"angle": 0, "axis": "y", "origin": [8, 20.4375, 6.75]},
			"faces": {
				"north": {"uv": [4.5, 10.75, 5.5, 12.75], "texture": "#0"},
				"east": {"uv": [3.5, 10.75, 4.5, 12.75], "texture": "#0"},
				"south": {"uv": [6.5, 10.75, 7.5, 12.75], "texture": "#0"},
				"west": {"uv": [5.5, 10.75, 6.5, 12.75], "texture": "#0"},
				"up": {"uv": [5.5, 10.75, 4.5, 9.75], "texture": "#0"},
				"down": {"uv": [6.5, 9.75, 5.5, 10.75], "texture": "#0"}
			}
		},
		{
			"from": [6.5, 14.4375, 6.5625],
			"to": [9.5, 26.4375, 9.5625],
			"rotation": {"angle": 0, "axis": "y", "origin": [8, 20.4375, 6.75]},
			"faces": {
				"north": {"uv": [4.75, 9.75, 5.5, 12.75], "texture": "#0"},
				"east": {"uv": [4, 9.75, 4.75, 12.75], "texture": "#0"},
				"south": {"uv": [6.25, 9.75, 7, 12.75], "texture": "#0"},
				"west": {"uv": [5.5, 9.75, 6.25, 12.75], "texture": "#0"},
				"up": {"uv": [5.5, 9.75, 4.75, 9], "texture": "#0"},
				"down": {"uv": [6.25, 9, 5.5, 9.75], "texture": "#0"}
			}
		}
	],
	"display": {
		"thirdperson_righthand": {
			"rotation": [0, 51, 0],
			"translation": [0, 0.5, 0.5],
			"scale": [0.25, 0.25, 0.25]
		},
		"thirdperson_lefthand": {
			"rotation": [0, 47, 0],
			"translation": [0, 0.5, 0.5],
			"scale": [0.25, 0.25, 0.25]
		},
		"firstperson_righthand": {
			"rotation": [0, 33, 20],
			"translation": [1, 0, -2.25],
			"scale": [0.5, 0.5, 0.5]
		},
		"firstperson_lefthand": {
			"rotation": [0, 33, 13],
			"translation": [1.75, 0, -2.25],
			"scale": [0.5, 0.5, 0.5]
		},
		"ground": {
			"scale": [0.25, 0.25, 0.25]
		},
		"gui": {
			"rotation": [30, 45, 0],
			"translation": [0.25, -1, 0],
			"scale": [0.5, 0.5, 0.5]
		},
		"head": {
			"translation": [0, -2.5, -1.5]
		},
		"fixed": {
			"rotation": [0, 91, 0],
			"translation": [0, -1, 0],
			"scale": [0.5, 0.5, 0.5]
		}
	},
	"groups": [
		{
			"name": "base",
			"origin": [8, 16, 8],
			"children": [0, 1, 2, 3, 4, 5, 6, 7, 8, 9, 10]
		},
		{
			"name": "crystal",
			"origin": [8, 16, 8],
			"children": [11, 12]
		}
	]
}