{
  "parent": "tardis:obtain_tardis",
  "display": {
    "icon": {
      "item": "tardis:regolith_sand"
    },
    "title": {
      "translate": "advancements.tardis.title.moon"
    },
    "description": {
      "translate": "advancements.tardis.desc.moon"
    },
    "frame": "task",
    "show_toast": true,
    "announce_to_chat": true,
    "hidden": false
  },
  "criteria": {
    "0": {
      "trigger": "minecraft:location",
      "conditions": {
        "biome": "tardis:moon_field"
      }
    }
  },
  "requirements": [
    [
      "0"
    ]
  ]
}