{
"type": "minecraft:crafting_shaped",
  "pattern":[
  "   ",
  "   ",
  "BBB"
  ],
  "key": {
  "B":
  {
  "item": "minecraft:blue_concrete"
  }
  },
  "result": {
    "item": "tardis:blue_concrete_slab",
    "count": 6
  }
}