{
  "config": {
    "top_material": {
      "Name": "tardis:regolith_sand"
    },
    "under_material": {
      "Name": "tardis:regolith_packed"
    },
    "underwater_material": {
      "Name": "minecraft:gravel"
    }
  },
  "type": "tardis:moon_surface_builder"
}