{
	"lines":[
		"Flight Hazards (cont.)",
		"",
		"Artron Pocket",
		" Your Timeship has found a pocket of Artron Energy.",
		"Use the Refueler and Facing Control to gain some extra Artron Units."
		,"If you fail to do this, there is no extra consequences."
	]
}